…
  - Key variables of user and order are – user ID, order day and order
    hour. They are other variables about items and products, including
    aisle, department and their ID numbers. It’s worth noticing that
    there are many aisles in a department, and products with different
    aisles and departments ID are distinct.

**(1) Number of ailes, and show aisles that most items ordered from**

``` r
# count aisles in instacart, and rank them
instacart %>% 
  count(aisle) %>% 
  arrange(desc(n))
## # A tibble: 134 x 2
##    aisle                              n
##    <chr>                          <int>
##  1 fresh vegetables              150609
##  2 fresh fruits                  150473
##  3 packaged vegetables fruits     78493
##  4 yogurt                         55240
##  5 packaged cheese                41699
##  6 water seltzer sparkling water  36617
##  7 milk                           32644
##  8 chips pretzels                 31269
##  9 soy lactosefree                26240
## 10 bread                          23635
## # ... with 124 more rows
```
…
